{
    "source": "[120, -38, 99, 98, 18, -56, -51, -52, 75, 77, 46, 74, 76, 43, 81, 53, 118, 76, -52, 44, -78, 103, 48, 75, -50, -49, 43, 73, -51, 43, 41, 41, 79, 77, -52, 78, 45, 2, 10, 23, -105, 38, -59, 39, -27, -28, 39, 103, -57, 103, -28, -25, -92, -92, 22, -59, 27, -40, 35, -124, -14, 74, 115, -109, 82, -117, 108, 13, 25, 24, 26, 88, -2, 3, -63, 1, 102, -20, 16, 36, 87, -1, -113, -127, 33, -127, -83, -2, 95, 2, 27, 42, 4, -119, 48, 48, -128, 100, 25, 24, -20, -1, -40, -1, 49, -32, 65, -123, 32, 49, 6, 40, -112, -1, -63, -64, 32, 33, 33, -1, 67, 2, 10, 64, 44, -120, 40, 2, -16, 127, -32, -1, 0, -45, 12, 98, 51, -96, 1, -10, 7, 12, 12, 108, 9, -20, 15, -40, 31, -80, 37, 64, 120, -104, -128, -55, 1, -28, 108, 38, 7, 6, 28, -128, -106, -14, -124, -36, -121, -49, 127, -124, -62, 7, 95, -8, 18, -118, 31, 66, -15, 11, 0, 8, 34, -123, 4]",
    "textures": {
          "texture": "base:blocks/block"
    },
"elements": [
    { "from": [0,0,0], "to": [16,0,1], "faces": { "down":  { "uv": [0,15,16,16], "texture": "#texture", "cullface": "down" } } },
    { "from": [0,0,15], "to": [16,0,16], "faces": { "down":  { "uv": [0,0,16,1], "texture": "#texture", "cullface": "down" } } },
    { "from": [0,16,0], "to": [16,16,1], "faces": { "up":  { "uv": [0,0,16,1], "texture": "#texture", "cullface": "up" } } },
    { "from": [0,16,15], "to": [16,16,16], "faces": { "up":  { "uv": [0,15,16,16], "texture": "#texture", "cullface": "up" } } },
    { "from": [0,0,0], "to": [16,2,0], "faces": { "north":  { "uv": [0,14,16,16], "texture": "#texture", "cullface": "north" } } },
    { "from": [0,14,0], "to": [16,16,0], "faces": { "north":  { "uv": [0,0,16,2], "texture": "#texture", "cullface": "north" } } },
    { "from": [0,2,0], "to": [2,14,0], "faces": { "north":  { "uv": [14,2,16,14], "texture": "#texture", "cullface": "north" } } },
    { "from": [14,2,0], "to": [16,14,0], "faces": { "north":  { "uv": [0,2,2,14], "texture": "#texture", "cullface": "north" } } },
    { "from": [0,0,16], "to": [16,2,16], "faces": { "south":  { "uv": [0,14,16,16], "texture": "#texture", "cullface": "south" } } },
    { "from": [0,14,16], "to": [16,16,16], "faces": { "south":  { "uv": [0,0,16,2], "texture": "#texture", "cullface": "south" } } },
    { "from": [0,2,16], "to": [2,14,16], "faces": { "south":  { "uv": [0,2,2,14], "texture": "#texture", "cullface": "south" } } },
    { "from": [14,2,16], "to": [16,14,16], "faces": { "south":  { "uv": [14,2,16,14], "texture": "#texture", "cullface": "south" } } },
    { "from": [0,0,0], "to": [0,16,1], "faces": { "west":  { "uv": [0,0,1,16], "texture": "#texture", "cullface": "west" } } },
    { "from": [0,0,15], "to": [0,16,16], "faces": { "west":  { "uv": [15,0,16,16], "texture": "#texture", "cullface": "west" } } },
    { "from": [16,0,0], "to": [16,16,1], "faces": { "east":  { "uv": [15,0,16,16], "texture": "#texture", "cullface": "east" } } },
    { "from": [16,0,15], "to": [16,16,16], "faces": { "east":  { "uv": [0,0,1,16], "texture": "#texture", "cullface": "east" } } },
    { "from": [2,2,0], "to": [2,14,1], "faces": { "east":  { "uv": [15,2,16,14], "texture": "#texture" } } },
    { "from": [2,2,15], "to": [2,14,16], "faces": { "east":  { "uv": [0,2,1,14], "texture": "#texture" } } },
    { "from": [3,3,1], "to": [3,13,2], "faces": { "east":  { "uv": [14,3,15,13], "texture": "#texture" } } },
    { "from": [3,3,14], "to": [3,13,15], "faces": { "east":  { "uv": [1,3,2,13], "texture": "#texture" } } },
    { "from": [4,4,2], "to": [4,12,3], "faces": { "east":  { "uv": [13,4,14,12], "texture": "#texture" } } },
    { "from": [4,4,13], "to": [4,12,14], "faces": { "east":  { "uv": [2,4,3,12], "texture": "#texture" } } },
    { "from": [5,5,3], "to": [5,11,4], "faces": { "east":  { "uv": [12,5,13,11], "texture": "#texture" } } },
    { "from": [5,5,12], "to": [5,11,13], "faces": { "east":  { "uv": [3,5,4,11], "texture": "#texture" } } },
    { "from": [6,6,4], "to": [6,10,5], "faces": { "east":  { "uv": [11,6,12,10], "texture": "#texture" } } },
    { "from": [6,6,11], "to": [6,10,12], "faces": { "east":  { "uv": [4,6,5,10], "texture": "#texture" } } },
    { "from": [7,7,5], "to": [7,9,11], "faces": { "east":  { "uv": [5,7,11,9], "texture": "#texture" } } },
    { "from": [10,6,6], "to": [10,10,10], "faces": { "east":  { "uv": [6,6,10,10], "texture": "#texture" } } },
    { "from": [11,5,5], "to": [11,11,6], "faces": { "east":  { "uv": [10,5,11,11], "texture": "#texture" } } },
    { "from": [11,5,10], "to": [11,11,11], "faces": { "east":  { "uv": [5,5,6,11], "texture": "#texture" } } },
    { "from": [12,4,4], "to": [12,12,5], "faces": { "east":  { "uv": [11,4,12,12], "texture": "#texture" } } },
    { "from": [12,4,11], "to": [12,12,12], "faces": { "east":  { "uv": [4,4,5,12], "texture": "#texture" } } },
    { "from": [13,3,3], "to": [13,13,4], "faces": { "east":  { "uv": [12,3,13,13], "texture": "#texture" } } },
    { "from": [13,3,12], "to": [13,13,13], "faces": { "east":  { "uv": [3,3,4,13], "texture": "#texture" } } },
    { "from": [14,2,2], "to": [14,14,3], "faces": { "east":  { "uv": [13,2,14,14], "texture": "#texture" } } },
    { "from": [14,2,13], "to": [14,14,14], "faces": { "east":  { "uv": [2,2,3,14], "texture": "#texture" } } },
    { "from": [15,1,1], "to": [15,15,2], "faces": { "east":  { "uv": [14,1,15,15], "texture": "#texture" } } },
    { "from": [15,1,14], "to": [15,15,15], "faces": { "east":  { "uv": [1,1,2,15], "texture": "#texture" } } },
    { "from": [1,1,1], "to": [1,15,2], "faces": { "west":  { "uv": [1,1,2,15], "texture": "#texture" } } },
    { "from": [1,1,14], "to": [1,15,15], "faces": { "west":  { "uv": [14,1,15,15], "texture": "#texture" } } },
    { "from": [2,2,2], "to": [2,14,3], "faces": { "west":  { "uv": [2,2,3,14], "texture": "#texture" } } },
    { "from": [2,2,13], "to": [2,14,14], "faces": { "west":  { "uv": [13,2,14,14], "texture": "#texture" } } },
    { "from": [3,3,3], "to": [3,13,4], "faces": { "west":  { "uv": [3,3,4,13], "texture": "#texture" } } },
    { "from": [3,3,12], "to": [3,13,13], "faces": { "west":  { "uv": [12,3,13,13], "texture": "#texture" } } },
    { "from": [4,4,4], "to": [4,12,5], "faces": { "west":  { "uv": [4,4,5,12], "texture": "#texture" } } },
    { "from": [4,4,11], "to": [4,12,12], "faces": { "west":  { "uv": [11,4,12,12], "texture": "#texture" } } },
    { "from": [5,5,5], "to": [5,11,6], "faces": { "west":  { "uv": [5,5,6,11], "texture": "#texture" } } },
    { "from": [5,5,10], "to": [5,11,11], "faces": { "west":  { "uv": [10,5,11,11], "texture": "#texture" } } },
    { "from": [6,6,6], "to": [6,10,10], "faces": { "west":  { "uv": [6,6,10,10], "texture": "#texture" } } },
    { "from": [9,7,5], "to": [9,9,11], "faces": { "west":  { "uv": [5,7,11,9], "texture": "#texture" } } },
    { "from": [10,6,4], "to": [10,10,5], "faces": { "west":  { "uv": [4,6,5,10], "texture": "#texture" } } },
    { "from": [10,6,11], "to": [10,10,12], "faces": { "west":  { "uv": [11,6,12,10], "texture": "#texture" } } },
    { "from": [11,5,3], "to": [11,11,4], "faces": { "west":  { "uv": [3,5,4,11], "texture": "#texture" } } },
    { "from": [11,5,12], "to": [11,11,13], "faces": { "west":  { "uv": [12,5,13,11], "texture": "#texture" } } },
    { "from": [12,4,2], "to": [12,12,3], "faces": { "west":  { "uv": [2,4,3,12], "texture": "#texture" } } },
    { "from": [12,4,13], "to": [12,12,14], "faces": { "west":  { "uv": [13,4,14,12], "texture": "#texture" } } },
    { "from": [13,3,1], "to": [13,13,2], "faces": { "west":  { "uv": [1,3,2,13], "texture": "#texture" } } },
    { "from": [13,3,14], "to": [13,13,15], "faces": { "west":  { "uv": [14,3,15,13], "texture": "#texture" } } },
    { "from": [14,2,0], "to": [14,14,1], "faces": { "west":  { "uv": [0,2,1,14], "texture": "#texture" } } },
    { "from": [14,2,15], "to": [14,14,16], "faces": { "west":  { "uv": [15,2,16,14], "texture": "#texture" } } },
    { "from": [2,2,0], "to": [14,2,1], "faces": { "up":  { "uv": [2,0,14,1], "texture": "#texture" } } },
    { "from": [2,2,15], "to": [14,2,16], "faces": { "up":  { "uv": [2,15,14,16], "texture": "#texture" } } },
    { "from": [3,3,1], "to": [13,3,2], "faces": { "up":  { "uv": [3,1,13,2], "texture": "#texture" } } },
    { "from": [3,3,14], "to": [13,3,15], "faces": { "up":  { "uv": [3,14,13,15], "texture": "#texture" } } },
    { "from": [4,4,2], "to": [12,4,3], "faces": { "up":  { "uv": [4,2,12,3], "texture": "#texture" } } },
    { "from": [4,4,13], "to": [12,4,14], "faces": { "up":  { "uv": [4,13,12,14], "texture": "#texture" } } },
    { "from": [5,5,3], "to": [11,5,4], "faces": { "up":  { "uv": [5,3,11,4], "texture": "#texture" } } },
    { "from": [5,5,12], "to": [11,5,13], "faces": { "up":  { "uv": [5,12,11,13], "texture": "#texture" } } },
    { "from": [6,6,4], "to": [10,6,5], "faces": { "up":  { "uv": [6,4,10,5], "texture": "#texture" } } },
    { "from": [6,6,11], "to": [10,6,12], "faces": { "up":  { "uv": [6,11,10,12], "texture": "#texture" } } },
    { "from": [7,7,5], "to": [9,7,11], "faces": { "up":  { "uv": [7,5,9,11], "texture": "#texture" } } },
    { "from": [6,10,6], "to": [10,10,10], "faces": { "up":  { "uv": [6,6,10,10], "texture": "#texture" } } },
    { "from": [5,11,5], "to": [11,11,6], "faces": { "up":  { "uv": [5,5,11,6], "texture": "#texture" } } },
    { "from": [5,11,10], "to": [11,11,11], "faces": { "up":  { "uv": [5,10,11,11], "texture": "#texture" } } },
    { "from": [4,12,4], "to": [12,12,5], "faces": { "up":  { "uv": [4,4,12,5], "texture": "#texture" } } },
    { "from": [4,12,11], "to": [12,12,12], "faces": { "up":  { "uv": [4,11,12,12], "texture": "#texture" } } },
    { "from": [3,13,3], "to": [13,13,4], "faces": { "up":  { "uv": [3,3,13,4], "texture": "#texture" } } },
    { "from": [3,13,12], "to": [13,13,13], "faces": { "up":  { "uv": [3,12,13,13], "texture": "#texture" } } },
    { "from": [2,14,2], "to": [14,14,3], "faces": { "up":  { "uv": [2,2,14,3], "texture": "#texture" } } },
    { "from": [2,14,13], "to": [14,14,14], "faces": { "up":  { "uv": [2,13,14,14], "texture": "#texture" } } },
    { "from": [1,15,1], "to": [15,15,2], "faces": { "up":  { "uv": [1,1,15,2], "texture": "#texture" } } },
    { "from": [1,15,14], "to": [15,15,15], "faces": { "up":  { "uv": [1,14,15,15], "texture": "#texture" } } },
    { "from": [1,1,1], "to": [15,1,2], "faces": { "down":  { "uv": [1,14,15,15], "texture": "#texture" } } },
    { "from": [1,1,14], "to": [15,1,15], "faces": { "down":  { "uv": [1,1,15,2], "texture": "#texture" } } },
    { "from": [2,2,2], "to": [14,2,3], "faces": { "down":  { "uv": [2,13,14,14], "texture": "#texture" } } },
    { "from": [2,2,13], "to": [14,2,14], "faces": { "down":  { "uv": [2,2,14,3], "texture": "#texture" } } },
    { "from": [3,3,3], "to": [13,3,4], "faces": { "down":  { "uv": [3,12,13,13], "texture": "#texture" } } },
    { "from": [3,3,12], "to": [13,3,13], "faces": { "down":  { "uv": [3,3,13,4], "texture": "#texture" } } },
    { "from": [4,4,4], "to": [12,4,5], "faces": { "down":  { "uv": [4,11,12,12], "texture": "#texture" } } },
    { "from": [4,4,11], "to": [12,4,12], "faces": { "down":  { "uv": [4,4,12,5], "texture": "#texture" } } },
    { "from": [5,5,5], "to": [11,5,6], "faces": { "down":  { "uv": [5,10,11,11], "texture": "#texture" } } },
    { "from": [5,5,10], "to": [11,5,11], "faces": { "down":  { "uv": [5,5,11,6], "texture": "#texture" } } },
    { "from": [6,6,6], "to": [10,6,10], "faces": { "down":  { "uv": [6,6,10,10], "texture": "#texture" } } },
    { "from": [7,9,5], "to": [9,9,11], "faces": { "down":  { "uv": [7,5,9,11], "texture": "#texture" } } },
    { "from": [6,10,4], "to": [10,10,5], "faces": { "down":  { "uv": [6,11,10,12], "texture": "#texture" } } },
    { "from": [6,10,11], "to": [10,10,12], "faces": { "down":  { "uv": [6,4,10,5], "texture": "#texture" } } },
    { "from": [5,11,3], "to": [11,11,4], "faces": { "down":  { "uv": [5,12,11,13], "texture": "#texture" } } },
    { "from": [5,11,12], "to": [11,11,13], "faces": { "down":  { "uv": [5,3,11,4], "texture": "#texture" } } },
    { "from": [4,12,2], "to": [12,12,3], "faces": { "down":  { "uv": [4,13,12,14], "texture": "#texture" } } },
    { "from": [4,12,13], "to": [12,12,14], "faces": { "down":  { "uv": [4,2,12,3], "texture": "#texture" } } },
    { "from": [3,13,1], "to": [13,13,2], "faces": { "down":  { "uv": [3,14,13,15], "texture": "#texture" } } },
    { "from": [3,13,14], "to": [13,13,15], "faces": { "down":  { "uv": [3,1,13,2], "texture": "#texture" } } },
    { "from": [2,14,0], "to": [14,14,1], "faces": { "down":  { "uv": [2,15,14,16], "texture": "#texture" } } },
    { "from": [2,14,15], "to": [14,14,16], "faces": { "down":  { "uv": [2,0,14,1], "texture": "#texture" } } },
    { "from": [0,0,1], "to": [16,1,1], "faces": { "south":  { "uv": [0,15,16,16], "texture": "#texture" } } },
    { "from": [0,1,1], "to": [1,15,1], "faces": { "south":  { "uv": [0,1,1,15], "texture": "#texture" } } },
    { "from": [15,1,1], "to": [16,15,1], "faces": { "south":  { "uv": [15,1,16,15], "texture": "#texture" } } },
    { "from": [0,15,1], "to": [16,16,1], "faces": { "south":  { "uv": [0,0,16,1], "texture": "#texture" } } },
    { "from": [1,1,2], "to": [15,2,2], "faces": { "south":  { "uv": [1,14,15,15], "texture": "#texture" } } },
    { "from": [1,2,2], "to": [2,14,2], "faces": { "south":  { "uv": [1,2,2,14], "texture": "#texture" } } },
    { "from": [14,2,2], "to": [15,14,2], "faces": { "south":  { "uv": [14,2,15,14], "texture": "#texture" } } },
    { "from": [1,14,2], "to": [15,15,2], "faces": { "south":  { "uv": [1,1,15,2], "texture": "#texture" } } },
    { "from": [2,2,3], "to": [14,3,3], "faces": { "south":  { "uv": [2,13,14,14], "texture": "#texture" } } },
    { "from": [2,3,3], "to": [3,13,3], "faces": { "south":  { "uv": [2,3,3,13], "texture": "#texture" } } },
    { "from": [13,3,3], "to": [14,13,3], "faces": { "south":  { "uv": [13,3,14,13], "texture": "#texture" } } },
    { "from": [2,13,3], "to": [14,14,3], "faces": { "south":  { "uv": [2,2,14,3], "texture": "#texture" } } },
    { "from": [3,3,4], "to": [13,4,4], "faces": { "south":  { "uv": [3,12,13,13], "texture": "#texture" } } },
    { "from": [3,4,4], "to": [4,12,4], "faces": { "south":  { "uv": [3,4,4,12], "texture": "#texture" } } },
    { "from": [12,4,4], "to": [13,12,4], "faces": { "south":  { "uv": [12,4,13,12], "texture": "#texture" } } },
    { "from": [3,12,4], "to": [13,13,4], "faces": { "south":  { "uv": [3,3,13,4], "texture": "#texture" } } },
    { "from": [4,4,5], "to": [12,5,5], "faces": { "south":  { "uv": [4,11,12,12], "texture": "#texture" } } },
    { "from": [4,5,5], "to": [5,11,5], "faces": { "south":  { "uv": [4,5,5,11], "texture": "#texture" } } },
    { "from": [11,5,5], "to": [12,11,5], "faces": { "south":  { "uv": [11,5,12,11], "texture": "#texture" } } },
    { "from": [4,11,5], "to": [12,12,5], "faces": { "south":  { "uv": [4,4,12,5], "texture": "#texture" } } },
    { "from": [5,5,6], "to": [11,6,6], "faces": { "south":  { "uv": [5,10,11,11], "texture": "#texture" } } },
    { "from": [5,6,6], "to": [6,10,6], "faces": { "south":  { "uv": [5,6,6,10], "texture": "#texture" } } },
    { "from": [10,6,6], "to": [11,10,6], "faces": { "south":  { "uv": [10,6,11,10], "texture": "#texture" } } },
    { "from": [5,10,6], "to": [11,11,6], "faces": { "south":  { "uv": [5,5,11,6], "texture": "#texture" } } },
    { "from": [6,6,11], "to": [10,7,11], "faces": { "south":  { "uv": [6,9,10,10], "texture": "#texture" } } },
    { "from": [6,7,11], "to": [7,9,11], "faces": { "south":  { "uv": [6,7,7,9], "texture": "#texture" } } },
    { "from": [9,7,11], "to": [10,9,11], "faces": { "south":  { "uv": [9,7,10,9], "texture": "#texture" } } },
    { "from": [6,9,11], "to": [10,10,11], "faces": { "south":  { "uv": [6,6,10,7], "texture": "#texture" } } },
    { "from": [5,5,12], "to": [11,6,12], "faces": { "south":  { "uv": [5,10,11,11], "texture": "#texture" } } },
    { "from": [5,6,12], "to": [6,10,12], "faces": { "south":  { "uv": [5,6,6,10], "texture": "#texture" } } },
    { "from": [10,6,12], "to": [11,10,12], "faces": { "south":  { "uv": [10,6,11,10], "texture": "#texture" } } },
    { "from": [5,10,12], "to": [11,11,12], "faces": { "south":  { "uv": [5,5,11,6], "texture": "#texture" } } },
    { "from": [4,4,13], "to": [12,5,13], "faces": { "south":  { "uv": [4,11,12,12], "texture": "#texture" } } },
    { "from": [4,5,13], "to": [5,11,13], "faces": { "south":  { "uv": [4,5,5,11], "texture": "#texture" } } },
    { "from": [11,5,13], "to": [12,11,13], "faces": { "south":  { "uv": [11,5,12,11], "texture": "#texture" } } },
    { "from": [4,11,13], "to": [12,12,13], "faces": { "south":  { "uv": [4,4,12,5], "texture": "#texture" } } },
    { "from": [3,3,14], "to": [13,4,14], "faces": { "south":  { "uv": [3,12,13,13], "texture": "#texture" } } },
    { "from": [3,4,14], "to": [4,12,14], "faces": { "south":  { "uv": [3,4,4,12], "texture": "#texture" } } },
    { "from": [12,4,14], "to": [13,12,14], "faces": { "south":  { "uv": [12,4,13,12], "texture": "#texture" } } },
    { "from": [3,12,14], "to": [13,13,14], "faces": { "south":  { "uv": [3,3,13,4], "texture": "#texture" } } },
    { "from": [2,2,15], "to": [14,3,15], "faces": { "south":  { "uv": [2,13,14,14], "texture": "#texture" } } },
    { "from": [2,3,15], "to": [3,13,15], "faces": { "south":  { "uv": [2,3,3,13], "texture": "#texture" } } },
    { "from": [13,3,15], "to": [14,13,15], "faces": { "south":  { "uv": [13,3,14,13], "texture": "#texture" } } },
    { "from": [2,13,15], "to": [14,14,15], "faces": { "south":  { "uv": [2,2,14,3], "texture": "#texture" } } },
    { "from": [2,2,1], "to": [14,3,1], "faces": { "north":  { "uv": [2,13,14,14], "texture": "#texture" } } },
    { "from": [2,3,1], "to": [3,13,1], "faces": { "north":  { "uv": [13,3,14,13], "texture": "#texture" } } },
    { "from": [13,3,1], "to": [14,13,1], "faces": { "north":  { "uv": [2,3,3,13], "texture": "#texture" } } },
    { "from": [2,13,1], "to": [14,14,1], "faces": { "north":  { "uv": [2,2,14,3], "texture": "#texture" } } },
    { "from": [3,3,2], "to": [13,4,2], "faces": { "north":  { "uv": [3,12,13,13], "texture": "#texture" } } },
    { "from": [3,4,2], "to": [4,12,2], "faces": { "north":  { "uv": [12,4,13,12], "texture": "#texture" } } },
    { "from": [12,4,2], "to": [13,12,2], "faces": { "north":  { "uv": [3,4,4,12], "texture": "#texture" } } },
    { "from": [3,12,2], "to": [13,13,2], "faces": { "north":  { "uv": [3,3,13,4], "texture": "#texture" } } },
    { "from": [4,4,3], "to": [12,5,3], "faces": { "north":  { "uv": [4,11,12,12], "texture": "#texture" } } },
    { "from": [4,5,3], "to": [5,11,3], "faces": { "north":  { "uv": [11,5,12,11], "texture": "#texture" } } },
    { "from": [11,5,3], "to": [12,11,3], "faces": { "north":  { "uv": [4,5,5,11], "texture": "#texture" } } },
    { "from": [4,11,3], "to": [12,12,3], "faces": { "north":  { "uv": [4,4,12,5], "texture": "#texture" } } },
    { "from": [5,5,4], "to": [11,6,4], "faces": { "north":  { "uv": [5,10,11,11], "texture": "#texture" } } },
    { "from": [5,6,4], "to": [6,10,4], "faces": { "north":  { "uv": [10,6,11,10], "texture": "#texture" } } },
    { "from": [10,6,4], "to": [11,10,4], "faces": { "north":  { "uv": [5,6,6,10], "texture": "#texture" } } },
    { "from": [5,10,4], "to": [11,11,4], "faces": { "north":  { "uv": [5,5,11,6], "texture": "#texture" } } },
    { "from": [6,6,5], "to": [10,7,5], "faces": { "north":  { "uv": [6,9,10,10], "texture": "#texture" } } },
    { "from": [6,7,5], "to": [7,9,5], "faces": { "north":  { "uv": [9,7,10,9], "texture": "#texture" } } },
    { "from": [9,7,5], "to": [10,9,5], "faces": { "north":  { "uv": [6,7,7,9], "texture": "#texture" } } },
    { "from": [6,9,5], "to": [10,10,5], "faces": { "north":  { "uv": [6,6,10,7], "texture": "#texture" } } },
    { "from": [5,5,10], "to": [11,6,10], "faces": { "north":  { "uv": [5,10,11,11], "texture": "#texture" } } },
    { "from": [5,6,10], "to": [6,10,10], "faces": { "north":  { "uv": [10,6,11,10], "texture": "#texture" } } },
    { "from": [10,6,10], "to": [11,10,10], "faces": { "north":  { "uv": [5,6,6,10], "texture": "#texture" } } },
    { "from": [5,10,10], "to": [11,11,10], "faces": { "north":  { "uv": [5,5,11,6], "texture": "#texture" } } },
    { "from": [4,4,11], "to": [12,5,11], "faces": { "north":  { "uv": [4,11,12,12], "texture": "#texture" } } },
    { "from": [4,5,11], "to": [5,11,11], "faces": { "north":  { "uv": [11,5,12,11], "texture": "#texture" } } },
    { "from": [11,5,11], "to": [12,11,11], "faces": { "north":  { "uv": [4,5,5,11], "texture": "#texture" } } },
    { "from": [4,11,11], "to": [12,12,11], "faces": { "north":  { "uv": [4,4,12,5], "texture": "#texture" } } },
    { "from": [3,3,12], "to": [13,4,12], "faces": { "north":  { "uv": [3,12,13,13], "texture": "#texture" } } },
    { "from": [3,4,12], "to": [4,12,12], "faces": { "north":  { "uv": [12,4,13,12], "texture": "#texture" } } },
    { "from": [12,4,12], "to": [13,12,12], "faces": { "north":  { "uv": [3,4,4,12], "texture": "#texture" } } },
    { "from": [3,12,12], "to": [13,13,12], "faces": { "north":  { "uv": [3,3,13,4], "texture": "#texture" } } },
    { "from": [2,2,13], "to": [14,3,13], "faces": { "north":  { "uv": [2,13,14,14], "texture": "#texture" } } },
    { "from": [2,3,13], "to": [3,13,13], "faces": { "north":  { "uv": [13,3,14,13], "texture": "#texture" } } },
    { "from": [13,3,13], "to": [14,13,13], "faces": { "north":  { "uv": [2,3,3,13], "texture": "#texture" } } },
    { "from": [2,13,13], "to": [14,14,13], "faces": { "north":  { "uv": [2,2,14,3], "texture": "#texture" } } },
    { "from": [1,1,14], "to": [15,2,14], "faces": { "north":  { "uv": [1,14,15,15], "texture": "#texture" } } },
    { "from": [1,2,14], "to": [2,14,14], "faces": { "north":  { "uv": [14,2,15,14], "texture": "#texture" } } },
    { "from": [14,2,14], "to": [15,14,14], "faces": { "north":  { "uv": [1,2,2,14], "texture": "#texture" } } },
    { "from": [1,14,14], "to": [15,15,14], "faces": { "north":  { "uv": [1,1,15,2], "texture": "#texture" } } },
    { "from": [0,0,15], "to": [16,1,15], "faces": { "north":  { "uv": [0,15,16,16], "texture": "#texture" } } },
    { "from": [0,1,15], "to": [1,15,15], "faces": { "north":  { "uv": [15,1,16,15], "texture": "#texture" } } },
    { "from": [15,1,15], "to": [16,15,15], "faces": { "north":  { "uv": [0,1,1,15], "texture": "#texture" } } },
    { "from": [0,15,15], "to": [16,16,15], "faces": { "north":  { "uv": [0,0,16,1], "texture": "#texture" } } }
],
"display": { "thirdperson": { "rotation": [ 10, -45, 170 ], "translation": [ 0, 1.5, -2.75 ], "scale": [ 0.375, 0.375, 0.375 ] } } }
