[
  {
    "dimension": -1,
    "block": [
      "minecraft:soul_sand",
      "minecraft:nether_brick"
    ],
    "biome": [
      "Hell"
    ],
    "mobs": [
      {
        "mob": "WitherSkeleton",
        "weight": 1,
        "groupcountmax": 1,
        "maxcount": "1",
        "maxlight": "7"
      }
    ]
    },
  {
    "dimension": -1,
    "block": [
      "minecraft:netherrack"
    ],
    "biome": [
      "Hell"
    ],
    "mobs": [
      {
        "mob": "Blaze",
        "weight": 1,
        "groupcountmax": 1,
        "maxcount": "5",
        "maxlight": "7"
      }
    ]
  }
]
