{
  "registryname": "catalytic_cracking_machine",
  "localizedname": "Catalytic Cracking Machine",
  "color": "1B1B1B",
  "parts": [
    {
      "x": -1,
      "y": 0,
      "z": 0,
      "elements": [
        "modularmachinery:blockcasing@1"
      ]
    },
    {
      "x": -1,
      "y": 0,
      "z": 1,
      "elements": [
        "modularmachinery:blockcasing@0"
      ]
    },
    {
      "x": 0,
      "y": 0,
      "z": 1,
      "elements": [
        "tconstruct:seared_tank@0"
      ]
    },
    {
      "x": 1,
      "y": 0,
      "z": 0,
      "elements": [
        "modularmachinery:blockcasing@1"
      ]
    },
    {
      "x": -1,
      "y": 0,
      "z": 2,
      "elements": [
        "modularmachinery:blockcasing@1"
      ]
    },
    {
      "x": 1,
      "y": 0,
      "z": 1,
      "elements": [
        "modularmachinery:blockcasing@0"
      ]
    },
    {
      "x": 0,
      "y": 0,
      "z": 2,
      "elements": [
        "modularmachinery:blockcasing@0"
      ]
    },
    {
      "x": 1,
      "y": 0,
      "z": 2,
      "elements": [
        "modularmachinery:blockcasing@1"
      ]
    },
    {
      "x": 1,
      "y": -1,
      "z": 0,
      "elements": [
        "modularmachinery:blockfluidinputhatch"
      ]
    },
    {
      "x": 0,
      "y": -1,
      "z": 0,
      "elements": [
        "modularmachinery:blockcasing@0"
      ]
    },
    {
      "x": -1,
      "y": 1,
      "z": 0,
      "elements": [
        "modularmachinery:blockcasing@0"
      ]
    },
    {
      "x": -1,
      "y": -1,
      "z": 0,
      "elements": [
        "modularmachinery:blockcasing@0"
      ]
    },
    {
      "x": 0,
      "y": 1,
      "z": 0,
      "elements": [
        "tconstruct:clear_stained_glass@15"
      ]
    },
    {
      "x": -1,
      "y": 1,
      "z": 1,
      "elements": [
        "tconstruct:clear_stained_glass@15"
      ]
    },
    {
      "x": 1,
      "y": 1,
      "z": 0,
      "elements": [
        "modularmachinery:blockcasing@0"
      ]
    },
    {
      "x": -1,
      "y": 1,
      "z": 2,
      "elements": [
        "modularmachinery:blockenergyinputhatch"
      ]
    },
    {
      "x": 0,
      "y": 1,
      "z": 2,
      "elements": [
        "tconstruct:clear_stained_glass@15"
      ]
    },
    {
      "x": 1,
      "y": 1,
      "z": 1,
      "elements": [
        "tconstruct:clear_stained_glass@15"
      ]
    },
    {
      "x": -1,
      "y": -1,
      "z": 1,
      "elements": [
        "modularmachinery:blockfluidoutputhatch"
      ]
    },
    {
      "x": 1,
      "y": 1,
      "z": 2,
      "elements": [
        "modularmachinery:blockcasing@0"
      ]
    },
    {
      "x": 0,
      "y": -1,
      "z": 1,
      "nbt": {"id":"immersiveengineering:fluidpipe"},
      "elements": [
        "immersiveengineering:metal_device1@6"
      ]
    },
    {
      "x": -1,
      "y": -1,
      "z": 2,
      "elements": [
        "modularmachinery:blockcasing@0"
      ]
    },
    {
      "x": 0,
      "y": -1,
      "z": 2,
      "elements": [
        "modularmachinery:blockcasing@0"
      ]
    },
    {
      "x": 1,
      "y": -1,
      "z": 1,
      "elements": [
        "modularmachinery:blockcasing@2"
      ]
    },
    {
      "x": 1,
      "y": -1,
      "z": 2,
      "elements": [
        "modularmachinery:blockfluidinputhatch"
      ]
    },
    {
        "x": 0,
        "y": 1,
        "z": 1,
        "elements": [
            "contenttweaker:palladium_catalyst@0"
        ]
    }
  ]
}
