{
    "rules": [
        {
            "match": {
                "blocks": {
                    "blocks": [
                        "geolosys:ore_vanilla:0",
                        "geolosys:ore_vanilla:1",
                        "geolosys:ore_vanilla:3",
                        "geolosys:ore_vanilla:4",
                        "geolosys:ore_vanilla:5",
                        "geolosys:ore_vanilla:6",
                        "geolosys:ore_sample_vanilla:1",
                        "geolosys:ore_sample_vanilla:3",
                        "geolosys:ore_sample_vanilla:4",
                        "geolosys:ore_sample_vanilla:5",
                        "geolosys:ore_sample_vanilla"
                    ]
                },
                "drops": {
                    "drops": [
                        "nuclearcraft:gem:*",
                        "nuclearcraft:dust:*"
                    ]
                }
            },
            "replaceStrategy": "REPLACE_ITEMS",
            "drops": [
                {

                }
            ]
        }
    ]
}
